[
     {
          "hora": "1323", 
          "anio": "2018", 
          "apellido": "Bryan", 
          "doctor": "Benjamin Sanzana", 
          "diagnostico": "Dolor de cabeza", 
          "dia": "13", 
          "mes": "11", 
          "nombre": "Bryan", 
          "estado": "Atendido", 
          "rut": "123"
     }, 
     {
          "hora": "17123", 
          "anio": "2018", 
          "apellido": "Bryan2", 
          "doctor": "Benjamin Sanzana", 
          "diagnostico": "cancer", 
          "dia": "16", 
          "mes": "11", 
          "nombre": "Bryan2", 
          "estado": "Atendido", 
          "rut": "12345"
     }, 
     {
          "hora": "123123", 
          "anio": "2018", 
          "mes": "11", 
          "apellido": "fsdf", 
          "doctor": "Catalina Alarcon", 
          "nombre": "asdasd", 
          "diagnostico": " ", 
          "estado": "No atendido", 
          "dia": "20", 
          "rut": "1123123"
     }
]